Bootstrapping
…
That looks about right. In comparison with the original data, the bootstrap sample has the same characteristics but isn’t a perfect duplicate – some original data points appear more than once, others don’t appear at all.

Drawing many bootstrap samples

We’re going to draw repeated samples with replacement, and then analyze each of those samples separately. It would be really great to have a data structure that makes it possible to keep track of everything. Maybe a list column??!

Let’s give that a try:

boot_straps = data_frame(
  strap_number = 1:1000,
  strap_sample = rerun(1000, boot_sample(sim_df_nonconst))
)

boot_straps
## # A tibble: 1,000 x 2
##    strap_number strap_sample      
##           <int> <list>            
##  1            1 <tibble [250 × 3]>
##  2            2 <tibble [250 × 3]>
##  3            3 <tibble [250 × 3]>
##  4            4 <tibble [250 × 3]>
##  5            5 <tibble [250 × 3]>
##  6            6 <tibble [250 × 3]>
##  7            7 <tibble [250 × 3]>
##  8            8 <tibble [250 × 3]>
##  9            9 <tibble [250 × 3]>
## 10           10 <tibble [250 × 3]>
## # ... with 990 more rows

We can do a few of quick checks to make sure this has worked as intended. First we’ll look at a couple of bootstrap samples.

boot_straps %>% 
  filter(strap_number %in% 1:2) %>% 
  mutate(strap_sample = map(strap_sample, ~arrange(.x, x))) %>% 
  pull(strap_sample)
## [[1]]
## # A tibble: 250 x 3
##         x   error       y
##     <dbl>   <dbl>   <dbl>
##  1 -1.21  -0.781  -2.43  
##  2 -0.914 -0.908  -1.65  
##  3 -0.914 -0.908  -1.65  
##  4 -0.733  0.447   0.248 
##  5 -0.733  0.447   0.248 
##  6 -0.733  0.447   0.248 
##  7 -0.733  0.447   0.248 
##  8 -0.641 -0.416  -0.338 
##  9 -0.606 -0.106   0.0774
## 10 -0.536  0.0227  0.413 
## # ... with 240 more rows
## 
## [[2]]
## # A tibble: 250 x 3
##         x   error      y
##     <dbl>   <dbl>  <dbl>
##  1 -1.29   1.40   -0.454
##  2 -0.989 -1.97   -2.93 
##  3 -0.914 -0.908  -1.65 
##  4 -0.805  0.292  -0.123
##  5 -0.733  0.447   0.248
##  6 -0.733  0.447   0.248
##  7 -0.733  0.447   0.248
##  8 -0.665 -0.544  -0.539
##  9 -0.536  0.0227  0.413
## 10 -0.536  0.0227  0.413
## # ... with 240 more rows
…
In comparison to the standard error bands in our previous plot (which are based on OLS), the distribution of regression lines is narrower near \(x = 0\) and wider at the ends of the \(x\) distribution.

bootstrap

Bootstrapping is common enough that it’s been automated, to some degree, in the modelr::boostrap function. This function makes it easy to draw bootstrap samples, and stores them in a mostly-helpful way – as a resample object that can be converted to and treated like a data frame. (This keeps you from having to actually store 1000 dataframes, and saves a lot of memory on your computer.)

boot_straps = 
  sim_df_nonconst %>% 
  modelr::bootstrap(n = 1000)

boot_straps$strap[[1]]
## <resample [250 x 3]> 228, 50, 145, 2, 208, 160, 25, 179, 149, 11, ...
as_data_frame(boot_straps$strap[[1]])
## # A tibble: 250 x 3
##         x    error       y
##     <dbl>    <dbl>   <dbl>
##  1 -0.606 -0.106    0.0774
##  2  1.88  -0.431    7.21  
##  3 -0.116  0.00958  1.66  
##  4  1.18   0.361    5.91  
##  5  1.54  -2.43     4.20  
##  6  2.87  -1.50     9.11  
##  7  1.62   0.190    7.05  
##  8  2.03  -0.975    7.11  
##  9 -0.286  0.154    1.29  
## 10  2.51   1.79    11.3   
## # ... with 240 more rows
…
