Cross Validation
…
The modelr has other outcome measures – RMSE is the most common, but median absolute deviation is pretty common as well.

The RMSEs are suggestive that both nonlinear models work better than the linear model, and that the smooth fit is better than the wiggly fit. However, to get a sense of model stability we really need to iterate this whole process. Of course, this could be done using loops but that’s a hassle …

CV using modelr

Luckily, modelr has tools to automate elements of the CV process. In particular, crossv_mc preforms the training / testing split multiple times, a stores the datasets using list columns.

cv_df = 
  crossv_mc(nonlin_df, 100) 

crossv_mc tries to be smart about memory – rather than repeating the dataset a bunch of times, it saves the data once and stores the indexes for each training / testing split using a resample object. This can be coerced to a dataframe, and can often be treated exactly like a dataframe. However, it’s not compatible with gam, so we have to convert each training and testing dataset (and lose that nice memory-saving stuff in the process) using the code below. It’s worth noting, though, that if all the models you want to fit use lm, you can skip this.

cv_df %>% pull(train) %>% .[[1]] %>% as_tibble
## # A tibble: 79 x 3
##       id     x       y
##    <int> <dbl>   <dbl>
##  1     1 0.266  1.11  
##  2     2 0.372  0.764 
##  3     3 0.573  0.358 
##  4     5 0.202  1.33  
##  5     7 0.945 -3.27  
##  6     8 0.661 -0.615 
##  7     9 0.629  0.0878
##  8    11 0.206  1.63  
##  9    12 0.177  0.836 
## 10    14 0.384  0.938 
## # ... with 69 more rows
cv_df %>% pull(test) %>% .[[1]] %>% as_tibble
## # A tibble: 21 x 3
##       id      x       y
##    <int>  <dbl>   <dbl>
##  1     4 0.908  -3.04  
##  2     6 0.898  -1.99  
##  3    10 0.0618  0.392 
##  4    13 0.687  -0.291 
##  5    15 0.770  -1.43  
##  6    17 0.718  -1.29  
##  7    23 0.652  -0.0535
##  8    42 0.647   0.158 
##  9    46 0.789  -1.23  
## 10    50 0.693  -0.684 
## # ... with 11 more rows
…
