Exploratory analysis using group_by
…
group_by

Datasets are often comprised of groups defined by one or more (categorical) variable; group_by() makes these groupings explicit so that they can be included in subsequent operations. For example, we might group weather_df by name and month:

weather_df %>%
  group_by(name, month)
## # A tibble: 1,095 x 7
## # Groups:   name, month [36]
##   name           id          date       month       prcp  tmax  tmin
##   <chr>          <chr>       <date>     <date>     <dbl> <dbl> <dbl>
## 1 CentralPark_NY USW00094728 2017-01-01 2017-01-01     0   8.9   4.4
## 2 CentralPark_NY USW00094728 2017-01-02 2017-01-01    53   5     2.8
## 3 CentralPark_NY USW00094728 2017-01-03 2017-01-01   147   6.1   3.9
## 4 CentralPark_NY USW00094728 2017-01-04 2017-01-01     0  11.1   1.1
## 5 CentralPark_NY USW00094728 2017-01-05 2017-01-01     0   1.1  -2.7
## 6 CentralPark_NY USW00094728 2017-01-06 2017-01-01    13   0.6  -3.8
## # … with 1,089 more rows
…
You can group by more than one variable.

weather_df %>%
  group_by(name, month) %>%
  summarize(
    mean_tmax = mean(tmax),
    median_tmax = median(tmax))
## # A tibble: 36 x 4
## # Groups:   name [3]
##   name           month      mean_tmax median_tmax
##   <chr>          <date>         <dbl>       <dbl>
## 1 CentralPark_NY 2017-01-01      5.98         6.1
## 2 CentralPark_NY 2017-02-01      9.28         8.3
## 3 CentralPark_NY 2017-03-01      8.22         8.3
## 4 CentralPark_NY 2017-04-01     18.3         18.3
## 5 CentralPark_NY 2017-05-01     20.1         19.4
## 6 CentralPark_NY 2017-06-01     26.3         27.2
## # … with 30 more rows
…
Window functions

The previous example used mean() to compute the mean within each group, which was then subtracted from the observed max tempurature. mean() takes n inputs and produces a single output.

Window functions, in contrast, take n inputs and return n outputs, and the outputs depend on all the inputs. There are several categories of window functions; you’re most likely to need ranking functions and offsets, which we illustrate below.

First, we can find the max temperature ranking within month.

weather_df %>%
  group_by(name, month) %>%
  mutate(temp_ranking = min_rank(tmax))
## # A tibble: 1,095 x 8
## # Groups:   name, month [36]
##   name        id       date       month       prcp  tmax  tmin temp_ranking
##   <chr>       <chr>    <date>     <date>     <dbl> <dbl> <dbl>        <int>
## 1 CentralPar… USW0009… 2017-01-01 2017-01-01     0   8.9   4.4           22
## 2 CentralPar… USW0009… 2017-01-02 2017-01-01    53   5     2.8           12
## 3 CentralPar… USW0009… 2017-01-03 2017-01-01   147   6.1   3.9           15
## 4 CentralPar… USW0009… 2017-01-04 2017-01-01     0  11.1   1.1           27
## 5 CentralPar… USW0009… 2017-01-05 2017-01-01     0   1.1  -2.7            5
## 6 CentralPar… USW0009… 2017-01-06 2017-01-01    13   0.6  -3.8            4
## # … with 1,089 more rows

This sort of ranking is useful when filtering data based on rank. We could, for example, keep only the day with the lowest max temperature within each month:

weather_df %>%
  group_by(name, month) %>%
  filter(min_rank(tmax) < 2)
## # A tibble: 42 x 7
## # Groups:   name, month [36]
##   name           id          date       month       prcp  tmax  tmin
##   <chr>          <chr>       <date>     <date>     <dbl> <dbl> <dbl>
## 1 CentralPark_NY USW00094728 2017-01-09 2017-01-01     0  -4.9  -9.9
## 2 CentralPark_NY USW00094728 2017-02-10 2017-02-01     0   0    -7.1
## 3 CentralPark_NY USW00094728 2017-03-15 2017-03-01     0  -3.2  -6.6
## 4 CentralPark_NY USW00094728 2017-04-01 2017-04-01     0   8.9   2.8
## 5 CentralPark_NY USW00094728 2017-05-13 2017-05-01   409  11.7   7.2
## 6 CentralPark_NY USW00094728 2017-06-06 2017-06-01    15  14.4  11.1
## # … with 36 more rows

We could also keep the three days with the highest max temperature:

weather_df %>%
  group_by(name, month) %>%
  filter(min_rank(desc(tmax)) < 4)
## # A tibble: 149 x 7
## # Groups:   name, month [36]
##   name           id          date       month       prcp  tmax  tmin
##   <chr>          <chr>       <date>     <date>     <dbl> <dbl> <dbl>
## 1 CentralPark_NY USW00094728 2017-01-12 2017-01-01    13  18.9   8.3
## 2 CentralPark_NY USW00094728 2017-01-13 2017-01-01     0  16.7   0  
## 3 CentralPark_NY USW00094728 2017-01-26 2017-01-01     5  13.3   6.1
## 4 CentralPark_NY USW00094728 2017-02-19 2017-02-01     0  18.3  11.7
## 5 CentralPark_NY USW00094728 2017-02-23 2017-02-01     0  18.3   6.7
## 6 CentralPark_NY USW00094728 2017-02-24 2017-02-01     0  21.1  14.4
## # … with 143 more rows

In both of these, we’ve skipped a mutate() statement that would create a ranking variable, and gone straight to filtering based on the result.

Offsets, especially lags, are used to compare an observation to it’s previous value. This is useful, for example, to find the day-by-day change in max temperature within each station over the year:

weather_df %>%
  group_by(name) %>%
  mutate(temp_change = tmax - lag(tmax))
## # A tibble: 1,095 x 8
## # Groups:   name [3]
##   name        id        date       month       prcp  tmax  tmin temp_change
##   <chr>       <chr>     <date>     <date>     <dbl> <dbl> <dbl>       <dbl>
## 1 CentralPar… USW00094… 2017-01-01 2017-01-01     0   8.9   4.4       NA   
## 2 CentralPar… USW00094… 2017-01-02 2017-01-01    53   5     2.8       -3.9 
## 3 CentralPar… USW00094… 2017-01-03 2017-01-01   147   6.1   3.9        1.10
## 4 CentralPar… USW00094… 2017-01-04 2017-01-01     0  11.1   1.1        5   
## 5 CentralPar… USW00094… 2017-01-05 2017-01-01     0   1.1  -2.7      -10   
## 6 CentralPar… USW00094… 2017-01-06 2017-01-01    13   0.6  -3.8       -0.5 
## # … with 1,089 more rows
…
