Tidy data and relational datasets
…
I’ll keep using the same repo / project as in data import and data manipulation, but create a new .Rmd for tidying. I’m also going to load some relevant packages, and limit the number of lines printed in a tibble.

library(tidyverse)

options(tibble.print_min = 5)

gather

In data import, we used the haven package to load the PULSE biomarkers dataset from a .sas7bdat. Let’s reload those data and take a closer look:

pulse_data = haven::read_sas("./data/public_pulse_data.sas7bdat") %>%
  janitor::clean_names()
pulse_data
## # A tibble: 1,087 x 7
##      id   age sex   bdi_score_bl bdi_score_01m bdi_score_06m bdi_score_12m
##   <dbl> <dbl> <chr>        <dbl>         <dbl>         <dbl>         <dbl>
## 1 10003  48.0 male             7             1             2             0
## 2 10015  72.5 male             6            NA            NA            NA
## 3 10022  58.5 male            14             3             8            NA
## 4 10026  72.7 male            20             6            18            16
## 5 10035  60.4 male             4             0             1             2
## # ... with 1,082 more rows

With our new understanding of tidy data, we quickly recognize a problem: the BDI score is spread across four columns, which correspond to four observation times. We can fix this problem using gather:

pulse_tidy_data = gather(pulse_data, key = visit, value = bdi, bdi_score_bl:bdi_score_12m)
## Warning: attributes are not identical across measure variables;
## they will be dropped
pulse_tidy_data
## # A tibble: 4,348 x 5
##      id   age sex   visit          bdi
##   <dbl> <dbl> <chr> <chr>        <dbl>
## 1 10003  48.0 male  bdi_score_bl     7
## 2 10015  72.5 male  bdi_score_bl     6
## 3 10022  58.5 male  bdi_score_bl    14
## 4 10026  72.7 male  bdi_score_bl    20
## 5 10035  60.4 male  bdi_score_bl     4
## # ... with 4,343 more rows
…
Each BDI score column has a specific label in the SAS dataset; these don’t match, so gather dropped them when creating the bdi column. Not a problem here, but dropping attributes could be an issue if you wanted to preserve dates, factors, or some other feature.

separate

The other issue with the PULSE data, now, is visit. The original column names were informative but are not necessarily the format we would need for analysis. I’m going to split visit into two columns using separate:

separate(pulse_tidy_data, visit, into = c("remove_1", "remove_2", "visit"), sep = "_")
## # A tibble: 4,348 x 7
##      id   age sex   remove_1 remove_2 visit   bdi
##   <dbl> <dbl> <chr> <chr>    <chr>    <chr> <dbl>
## 1 10003  48.0 male  bdi      score    bl        7
## 2 10015  72.5 male  bdi      score    bl        6
## 3 10022  58.5 male  bdi      score    bl       14
## 4 10026  72.7 male  bdi      score    bl       20
## 5 10035  60.4 male  bdi      score    bl        4
## # ... with 4,343 more rows
…
Altogether, then, the code below will import, tidy, and transform the PULSE dataset into a usable format:

pulse_data = haven::read_sas("./data/public_pulse_data.sas7bdat") %>%
  janitor::clean_names() %>%
  gather(key = visit, value = bdi, bdi_score_bl:bdi_score_12m) %>%
  separate(visit, into = c("remove_1", "remove_2", "visit"), sep = "_") %>%
  select(id, visit, everything(), -starts_with("remove")) %>%
  mutate(visit = replace(visit, visit == "bl", "00m"),
         visit = factor(visit, levels = str_c(c("00", "01", "06", "12"), "m"))) %>%
  arrange(id, visit)
## Warning: attributes are not identical across measure variables;
## they will be dropped

print(pulse_data, n = 12)
## # A tibble: 4,348 x 5
##       id visit   age sex     bdi
##    <dbl> <fct> <dbl> <chr> <dbl>
##  1 10003 00m    48.0 male      7
##  2 10003 01m    48.0 male      1
##  3 10003 06m    48.0 male      2
##  4 10003 12m    48.0 male      0
##  5 10015 00m    72.5 male      6
##  6 10015 01m    72.5 male     NA
##  7 10015 06m    72.5 male     NA
##  8 10015 12m    72.5 male     NA
##  9 10022 00m    58.5 male     14
## 10 10022 01m    58.5 male      3
## 11 10022 06m    58.5 male      8
## 12 10022 12m    58.5 male     NA
## # ... with 4,336 more rows
…
These data are also untidy: group encodes both dose and day of treatment! Time to fix that …

litters_data = 
  read_csv("./data/FAS_litters.csv", col_types = "ccddiiii") %>% 
  janitor::clean_names() %>%
  separate(group, into = c("dose", "day_of_tx"), sep = 3) %>%
  mutate(dose = tolower(dose),
         wt_gain = gd18_weight - gd0_weight) %>%
  arrange(litter_number)

litters_data
## # A tibble: 49 x 10
##   dose  day_of_tx litter_number gd0_weight gd18_weight gd_of_birth
##   <chr> <chr>     <chr>              <dbl>       <dbl>       <int>
## 1 con   7         #1/2/95/2             27        42            19
## 2 con   7         #1/5/3/83/3-…         NA        NA            20
## 3 con   8         #1/6/2/2/95-2         NA        NA            20
## 4 mod   7         #1/82/3-2             NA        NA            19
## 5 low   8         #100                  20        39.2          20
## # ... with 44 more rows, and 4 more variables: pups_born_alive <int>,
## #   pups_dead_birth <int>, pups_survive <int>, wt_gain <dbl>

Now we’re in pretty okay shape :-).

Learning Assessment: In the litters data, the variables gd0_weight and gd18_weight give the weight of the mother mouse on gestational days 0 and 18. Write a data cleaning chain that retains only litter_number and these columns; produces new variables gd and weight; and makes gd a numeric variable taking values 0 and 18 (for the last part, you might want to use recode …). Is this version “tidy”?

  Solution 

The code below shows one approach to this data cleaning process:

litters_data %>% 
  select(litter_number, ends_with("weight")) %>% 
  gather(key = gd, value = weight, gd0_weight:gd18_weight) %>% 
  mutate(gd = recode(gd, "gd0_weight" = 0, "gd18_weight" = 18))
## # A tibble: 98 x 3
##   litter_number      gd weight
##   <chr>           <dbl>  <dbl>
## 1 #1/2/95/2           0     27
## 2 #1/5/3/83/3-3/2     0     NA
## 3 #1/6/2/2/95-2       0     NA
## 4 #1/82/3-2           0     NA
## 5 #100                0     20
## # ... with 93 more rows
…
pup_data = read_csv("./data/FAS_pups.csv", col_types = "ciiiii") %>%
  janitor::clean_names() %>%
  mutate(sex = recode(sex, `1` = "male", `2` = "female")) 

litter_data = read_csv("./data/FAS_litters.csv", col_types = "ccddiiii") %>%
  janitor::clean_names() %>%
  select(-pups_survive) %>%
  mutate(
    wt_gain = gd18_weight - gd0_weight,
    group = tolower(group))

fas_data = left_join(pup_data, litter_data, by = "litter_number")
fas_data
## # A tibble: 313 x 13
##   litter_number sex   pd_ears pd_eyes pd_pivot pd_walk group gd0_weight
##   <chr>         <chr>   <int>   <int>    <int>   <int> <chr>      <dbl>
## 1 #85           male        4      13        7      11 con7        19.7
## 2 #85           male        4      13        7      12 con7        19.7
## 3 #1/2/95/2     male        5      13        7       9 con7        27  
## 4 #1/2/95/2     male        5      13        8      10 con7        27  
## 5 #5/5/3/83/3-3 male        5      13        8      10 con7        26  
## # ... with 308 more rows, and 5 more variables: gd18_weight <dbl>,
## #   gd_of_birth <int>, pups_born_alive <int>, pups_dead_birth <int>,
## #   wt_gain <dbl>
…
